<?xml version="1.0" encoding="UTF-8"?>
<svg width="27px" height="25px" viewBox="0 0 27 25" version="1.1" xmlns="http://www.w3.org/2000/svg" xmlns:xlink="http://www.w3.org/1999/xlink">
    <!-- Generator: Sketch 43.2 (39069) - http://www.bohemiancoding.com/sketch -->
    <title>Star</title>
    <desc>Created with Sketch.</desc>
    <defs></defs>
    <g id="Page-1" stroke="none" stroke-width="1" fill="none" fill-rule="evenodd">
        <g id="Group-23" transform="translate(-1279.000000, -417.000000)" stroke="#B8AA01" fill="#F8E81C">
            <g id="My-Movies-View" transform="translate(143.000000, 208.000000)">
                <g id="Movie-List-Content" transform="translate(1.000000, 93.000000)">
                    <g id="Movie-List" transform="translate(30.000000, 115.000000)">
                        <g id="Group-31">
                            <g id="Group-30" transform="translate(1105.000000, 1.000000)">
                                <polygon id="Star" points="13.5 20.25 5.56489909 24.4217294 7.08036852 15.5858647 0.66073703 9.32827058 9.53244955 8.03913529 13.5 0 17.4675505 8.03913529 26.339263 9.32827058 19.9196315 15.5858647 21.4351009 24.4217294"></polygon>
                            </g>
                        </g>
                    </g>
                </g>
            </g>
        </g>
    </g>
</svg>